Visual Communication and Data Storytelling – W#03 Amounts Proportions Uncertainty
…
In hindsight, do you think Britain was right/wrong to vote to leave EU?

🔲 Right to leave | 🔲 Wrong to leave | 🔲 Don’t know

The file brexit_opinions.csv in the dataset in the repository VisCom_Playground.

Look at the first 10 rows

Code

library(tidyverse)
brexit <- read_csv("../data/brexit_opinions.csv")
brexit

# A tibble: 1,639 × 2
   opinion region
   <chr>   <chr> 
 1 Right   london
 2 Right   london
 3 Right   london
 4 Right   london
 5 Right   london
 6 Right   london
 7 Right   london
 8 Right   london
 9 Right   london
10 Right   london
# ℹ 1,629 more rows
…
